com\pabloriosramirez\webportafolio\spring\config\MvcWebConfig.class
com\pabloriosramirez\webportafolio\spring\config\MvcWebApplicationInitializer.class
com\pabloriosramirez\webportafolio\spring\controller\MainController.class
